R for Data Cleaning – Computing Basics and Intro to R
…
Source: Illustrations from the Openscapes blog Tidy Data for reproducibility, efficiency, and collaboration by Julia Lowndes and Allison Horst.

Wrangling data with dplyr

We often need to modify data to conduct our analyses, e.g., creating columns, filtering rows, etc. In the tidyverse, these operations are conducted with multiple verbs, which we will review now.

Selecting columns

We can select specific columns in our dataset with the select() function. All dplyr wrangling verbs take a data frame as their first argument—in this case, the columns we want to select are the other arguments.

select(penguins_raw, Species, Island, `Individual ID`)

# A tibble: 344 × 3
   Species                             Island    `Individual ID`
   <chr>                               <chr>     <chr>          
 1 Adelie Penguin (Pygoscelis adeliae) Torgersen N1A1           
 2 Adelie Penguin (Pygoscelis adeliae) Torgersen N1A2           
 3 Adelie Penguin (Pygoscelis adeliae) Torgersen N2A1           
 4 Adelie Penguin (Pygoscelis adeliae) Torgersen N2A2           
 5 Adelie Penguin (Pygoscelis adeliae) Torgersen N3A1           
 6 Adelie Penguin (Pygoscelis adeliae) Torgersen N3A2           
 7 Adelie Penguin (Pygoscelis adeliae) Torgersen N4A1           
 8 Adelie Penguin (Pygoscelis adeliae) Torgersen N4A2           
 9 Adelie Penguin (Pygoscelis adeliae) Torgersen N5A1           
10 Adelie Penguin (Pygoscelis adeliae) Torgersen N5A2           
# ℹ 334 more rows

This is a good moment to talk about “pipes.” Notice how the code below produces the same output as the one above, but with a slightly different syntax. Pipes (|> or %>%) “kick” the object on the left of the pipe to the first argument of the function on the right. One can read pipes as “then,” so the code below can be read as “take penguins_raw, then select the columns Species, Island and Individual ID.” Pipes are very powerful and can be used to link multiple operations, as we will see in a moment.

penguins_raw |> 
  select(Species, Island, `Individual ID`) 

# A tibble: 344 × 3
   Species                             Island    `Individual ID`
   <chr>                               <chr>     <chr>          
 1 Adelie Penguin (Pygoscelis adeliae) Torgersen N1A1           
 2 Adelie Penguin (Pygoscelis adeliae) Torgersen N1A2           
 3 Adelie Penguin (Pygoscelis adeliae) Torgersen N2A1           
 4 Adelie Penguin (Pygoscelis adeliae) Torgersen N2A2           
 5 Adelie Penguin (Pygoscelis adeliae) Torgersen N3A1           
 6 Adelie Penguin (Pygoscelis adeliae) Torgersen N3A2           
 7 Adelie Penguin (Pygoscelis adeliae) Torgersen N4A1           
 8 Adelie Penguin (Pygoscelis adeliae) Torgersen N4A2           
 9 Adelie Penguin (Pygoscelis adeliae) Torgersen N5A1           
10 Adelie Penguin (Pygoscelis adeliae) Torgersen N5A2           
# ℹ 334 more rows

Tip

You can insert a pipe with the Cmd/Ctrl + Shift + M shortcut. If you have not changed the default RStudio settings, an “old” pipe (%>%) might appear. While most of the functionality is the same, the |> “new” pipes are more readable and don’t need any extra packages (to use %>% you need the tidyverse or one of its packages). You can change this RStudio option in Tools > Global Options > Code > Use native pipe operator.

Going back to selecting columns, you can select ranges:

penguins_raw |> 
  select(Species:`Individual ID`)

# A tibble: 344 × 5
   Species                             Region Island    Stage    `Individual ID`
   <chr>                               <chr>  <chr>     <chr>    <chr>          
 1 Adelie Penguin (Pygoscelis adeliae) Anvers Torgersen Adult, … N1A1           
 2 Adelie Penguin (Pygoscelis adeliae) Anvers Torgersen Adult, … N1A2           
 3 Adelie Penguin (Pygoscelis adeliae) Anvers Torgersen Adult, … N2A1           
 4 Adelie Penguin (Pygoscelis adeliae) Anvers Torgersen Adult, … N2A2           
 5 Adelie Penguin (Pygoscelis adeliae) Anvers Torgersen Adult, … N3A1           
 6 Adelie Penguin (Pygoscelis adeliae) Anvers Torgersen Adult, … N3A2           
 7 Adelie Penguin (Pygoscelis adeliae) Anvers Torgersen Adult, … N4A1           
 8 Adelie Penguin (Pygoscelis adeliae) Anvers Torgersen Adult, … N4A2           
 9 Adelie Penguin (Pygoscelis adeliae) Anvers Torgersen Adult, … N5A1           
10 Adelie Penguin (Pygoscelis adeliae) Anvers Torgersen Adult, … N5A2           
# ℹ 334 more rows

You can also deselect columns using a minus sign:

penguins_raw |> 
  select(-Species)

# A tibble: 344 × 16
   studyName `Sample Number` Region Island    Stage              `Individual ID`
   <chr>               <dbl> <chr>  <chr>     <chr>              <chr>          
 1 PAL0708                 1 Anvers Torgersen Adult, 1 Egg Stage N1A1           
 2 PAL0708                 2 Anvers Torgersen Adult, 1 Egg Stage N1A2           
 3 PAL0708                 3 Anvers Torgersen Adult, 1 Egg Stage N2A1           
 4 PAL0708                 4 Anvers Torgersen Adult, 1 Egg Stage N2A2           
 5 PAL0708                 5 Anvers Torgersen Adult, 1 Egg Stage N3A1           
 6 PAL0708                 6 Anvers Torgersen Adult, 1 Egg Stage N3A2           
 7 PAL0708                 7 Anvers Torgersen Adult, 1 Egg Stage N4A1           
 8 PAL0708                 8 Anvers Torgersen Adult, 1 Egg Stage N4A2           
 9 PAL0708                 9 Anvers Torgersen Adult, 1 Egg Stage N5A1           
10 PAL0708                10 Anvers Torgersen Adult, 1 Egg Stage N5A2           
# ℹ 334 more rows
# ℹ 10 more variables: `Clutch Completion` <chr>, `Date Egg` <date>,
#   `Culmen Length (mm)` <dbl>, `Culmen Depth (mm)` <dbl>,
#   `Flipper Length (mm)` <dbl>, `Body Mass (g)` <dbl>, Sex <chr>,
#   `Delta 15 N (o/oo)` <dbl>, `Delta 13 C (o/oo)` <dbl>, Comments <chr>

And use a few helper functions, like matches():

penguins_raw |> 
  select(Species, matches("Length"))

# A tibble: 344 × 3
   Species                            `Culmen Length (mm)` `Flipper Length (mm)`
   <chr>                                             <dbl>                 <dbl>
 1 Adelie Penguin (Pygoscelis adelia…                 39.1                   181
 2 Adelie Penguin (Pygoscelis adelia…                 39.5                   186
 3 Adelie Penguin (Pygoscelis adelia…                 40.3                   195
 4 Adelie Penguin (Pygoscelis adelia…                 NA                      NA
 5 Adelie Penguin (Pygoscelis adelia…                 36.7                   193
 6 Adelie Penguin (Pygoscelis adelia…                 39.3                   190
 7 Adelie Penguin (Pygoscelis adelia…                 38.9                   181
 8 Adelie Penguin (Pygoscelis adelia…                 39.2                   195
 9 Adelie Penguin (Pygoscelis adelia…                 34.1                   193
10 Adelie Penguin (Pygoscelis adelia…                 42                     190
# ℹ 334 more rows

Or everything(), which we usually use to reorder columns:

penguins_raw |> 
  select(Species, everything())

# A tibble: 344 × 17
   Species         studyName `Sample Number` Region Island Stage `Individual ID`
   <chr>           <chr>               <dbl> <chr>  <chr>  <chr> <chr>          
 1 Adelie Penguin… PAL0708                 1 Anvers Torge… Adul… N1A1           
 2 Adelie Penguin… PAL0708                 2 Anvers Torge… Adul… N1A2           
 3 Adelie Penguin… PAL0708                 3 Anvers Torge… Adul… N2A1           
 4 Adelie Penguin… PAL0708                 4 Anvers Torge… Adul… N2A2           
 5 Adelie Penguin… PAL0708                 5 Anvers Torge… Adul… N3A1           
 6 Adelie Penguin… PAL0708                 6 Anvers Torge… Adul… N3A2           
 7 Adelie Penguin… PAL0708                 7 Anvers Torge… Adul… N4A1           
 8 Adelie Penguin… PAL0708                 8 Anvers Torge… Adul… N4A2           
 9 Adelie Penguin… PAL0708                 9 Anvers Torge… Adul… N5A1           
10 Adelie Penguin… PAL0708                10 Anvers Torge… Adul… N5A2           
# ℹ 334 more rows
# ℹ 10 more variables: `Clutch Completion` <chr>, `Date Egg` <date>,
#   `Culmen Length (mm)` <dbl>, `Culmen Depth (mm)` <dbl>,
#   `Flipper Length (mm)` <dbl>, `Body Mass (g)` <dbl>, Sex <chr>,
#   `Delta 15 N (o/oo)` <dbl>, `Delta 13 C (o/oo)` <dbl>, Comments <chr>

Tip

Notice that all these commands have not edited our existent objects—they have just printed the requested outputs to the screen. In order to modify objects, you need to use the assignment operator (<-). For example:

penguins_raw_reduced <- penguins_raw |> 
  select(Species, matches("Length"))

penguins_raw_reduced

# A tibble: 344 × 3
   Species                            `Culmen Length (mm)` `Flipper Length (mm)`
   <chr>                                             <dbl>                 <dbl>
 1 Adelie Penguin (Pygoscelis adelia…                 39.1                   181
 2 Adelie Penguin (Pygoscelis adelia…                 39.5                   186
 3 Adelie Penguin (Pygoscelis adelia…                 40.3                   195
 4 Adelie Penguin (Pygoscelis adelia…                 NA                      NA
 5 Adelie Penguin (Pygoscelis adelia…                 36.7                   193
 6 Adelie Penguin (Pygoscelis adelia…                 39.3                   190
 7 Adelie Penguin (Pygoscelis adelia…                 38.9                   181
 8 Adelie Penguin (Pygoscelis adelia…                 39.2                   195
 9 Adelie Penguin (Pygoscelis adelia…                 34.1                   193
10 Adelie Penguin (Pygoscelis adelia…                 42                     190
# ℹ 334 more rows

Exercise

Select the variables Species, Stage, Individual ID, Clutch Completion, and Date Egg from the data frame.

Solution

penguins_raw |> 
  select(Species, Stage, `Individual ID`, `Clutch Completion`, `Date Egg`)

# A tibble: 344 × 5
   Species                  Stage `Individual ID` `Clutch Completion` `Date Egg`
   <chr>                    <chr> <chr>           <chr>               <date>    
 1 Adelie Penguin (Pygosce… Adul… N1A1            Yes                 2007-11-11
 2 Adelie Penguin (Pygosce… Adul… N1A2            Yes                 2007-11-11
 3 Adelie Penguin (Pygosce… Adul… N2A1            Yes                 2007-11-16
 4 Adelie Penguin (Pygosce… Adul… N2A2            Yes                 2007-11-16
 5 Adelie Penguin (Pygosce… Adul… N3A1            Yes                 2007-11-16
 6 Adelie Penguin (Pygosce… Adul… N3A2            Yes                 2007-11-16
 7 Adelie Penguin (Pygosce… Adul… N4A1            No                  2007-11-15
 8 Adelie Penguin (Pygosce… Adul… N4A2            No                  2007-11-15
 9 Adelie Penguin (Pygosce… Adul… N5A1            Yes                 2007-11-09
10 Adelie Penguin (Pygosce… Adul… N5A2            Yes                 2007-11-09
# ℹ 334 more rows

Renaming columns

We can use the rename() function to rename columns, with the syntax new_name = old_name. This is especially useful for datasets like this one, where the column names are long, have spaces in them, or other special characters that require ` in order to call the column name. Here is an example of how we rename a column:

penguins_raw |> 
  rename(id = `Individual ID`, 
         flipper_length = `Flipper Length (mm)`)

# A tibble: 344 × 17
   studyName `Sample Number` Species                   Region Island Stage id   
   <chr>               <dbl> <chr>                     <chr>  <chr>  <chr> <chr>
 1 PAL0708                 1 Adelie Penguin (Pygoscel… Anvers Torge… Adul… N1A1 
 2 PAL0708                 2 Adelie Penguin (Pygoscel… Anvers Torge… Adul… N1A2 
 3 PAL0708                 3 Adelie Penguin (Pygoscel… Anvers Torge… Adul… N2A1 
 4 PAL0708                 4 Adelie Penguin (Pygoscel… Anvers Torge… Adul… N2A2 
 5 PAL0708                 5 Adelie Penguin (Pygoscel… Anvers Torge… Adul… N3A1 
 6 PAL0708                 6 Adelie Penguin (Pygoscel… Anvers Torge… Adul… N3A2 
 7 PAL0708                 7 Adelie Penguin (Pygoscel… Anvers Torge… Adul… N4A1 
 8 PAL0708                 8 Adelie Penguin (Pygoscel… Anvers Torge… Adul… N4A2 
 9 PAL0708                 9 Adelie Penguin (Pygoscel… Anvers Torge… Adul… N5A1 
10 PAL0708                10 Adelie Penguin (Pygoscel… Anvers Torge… Adul… N5A2 
# ℹ 334 more rows
# ℹ 10 more variables: `Clutch Completion` <chr>, `Date Egg` <date>,
#   `Culmen Length (mm)` <dbl>, `Culmen Depth (mm)` <dbl>,
#   flipper_length <dbl>, `Body Mass (g)` <dbl>, Sex <chr>,
#   `Delta 15 N (o/oo)` <dbl>, `Delta 13 C (o/oo)` <dbl>, Comments <chr>

This is a good occasion to show how pipes allow us to chain operations. How do we read the following code out loud? (Remember that pipes are read as “then”).

penguins_raw |> 
  select(Species, `Individual ID`, matches("Length")) |> 
  rename(id = `Individual ID`, 
         flipper_length = `Flipper Length (mm)`)

# A tibble: 344 × 4
   Species                             id    `Culmen Length (mm)` flipper_length
   <chr>                               <chr>                <dbl>          <dbl>
 1 Adelie Penguin (Pygoscelis adeliae) N1A1                  39.1            181
 2 Adelie Penguin (Pygoscelis adeliae) N1A2                  39.5            186
 3 Adelie Penguin (Pygoscelis adeliae) N2A1                  40.3            195
 4 Adelie Penguin (Pygoscelis adeliae) N2A2                  NA               NA
 5 Adelie Penguin (Pygoscelis adeliae) N3A1                  36.7            193
 6 Adelie Penguin (Pygoscelis adeliae) N3A2                  39.3            190
 7 Adelie Penguin (Pygoscelis adeliae) N4A1                  38.9            181
 8 Adelie Penguin (Pygoscelis adeliae) N4A2                  39.2            195
 9 Adelie Penguin (Pygoscelis adeliae) N5A1                  34.1            193
10 Adelie Penguin (Pygoscelis adeliae) N5A2                  42              190
# ℹ 334 more rows

Creating columns

It is common to want to create columns based on existing ones. We can use mutate() to do so. For example, we could want to express the main length variables (length of the penguin’s flipper and culmen, the dorsal ridge of their bill) in centimeters instead of millimeters:

penguins_raw |> 
  select(Species, matches("Length")) |> # select just for clarity
    rename(flipper_length = `Flipper Length (mm)`) |>
  #mutate length variables
  mutate(flipper_length_cm = flipper_length * 0.1,
         culmen_length_cm = `Culmen Length (mm)` * 0.1)

# A tibble: 344 × 5
   Species                 `Culmen Length (mm)` flipper_length flipper_length_cm
   <chr>                                  <dbl>          <dbl>             <dbl>
 1 Adelie Penguin (Pygosc…                 39.1            181              18.1
 2 Adelie Penguin (Pygosc…                 39.5            186              18.6
 3 Adelie Penguin (Pygosc…                 40.3            195              19.5
 4 Adelie Penguin (Pygosc…                 NA               NA              NA  
 5 Adelie Penguin (Pygosc…                 36.7            193              19.3
 6 Adelie Penguin (Pygosc…                 39.3            190              19  
 7 Adelie Penguin (Pygosc…                 38.9            181              18.1
 8 Adelie Penguin (Pygosc…                 39.2            195              19.5
 9 Adelie Penguin (Pygosc…                 34.1            193              19.3
10 Adelie Penguin (Pygosc…                 42              190              19  
# ℹ 334 more rows
# ℹ 1 more variable: culmen_length_cm <dbl>

We can also use multiple columns for creating a new one. For example, let’s calculate the flipper to culmen length ratio:

penguins_raw |> 
 select(Species,  matches("Length")) |> # select just for clarity
    rename(flipper_length = `Flipper Length (mm)`) |>
  mutate(flipper_culmen_ratio = flipper_length/`Culmen Length (mm)`)

# A tibble: 344 × 4
   Species              `Culmen Length (mm)` flipper_length flipper_culmen_ratio
   <chr>                               <dbl>          <dbl>                <dbl>
 1 Adelie Penguin (Pyg…                 39.1            181                 4.63
 2 Adelie Penguin (Pyg…                 39.5            186                 4.71
 3 Adelie Penguin (Pyg…                 40.3            195                 4.84
 4 Adelie Penguin (Pyg…                 NA               NA                NA   
 5 Adelie Penguin (Pyg…                 36.7            193                 5.26
 6 Adelie Penguin (Pyg…                 39.3            190                 4.83
 7 Adelie Penguin (Pyg…                 38.9            181                 4.65
 8 Adelie Penguin (Pyg…                 39.2            195                 4.97
 9 Adelie Penguin (Pyg…                 34.1            193                 5.66
10 Adelie Penguin (Pyg…                 42              190                 4.52
# ℹ 334 more rows

Filtering rows

Another common operation is to filter rows based on logical conditions. We can do so with the filter() function. For example, we can filter to only get penguins of a certain species:

penguins_raw |> 
  filter(Species == "Gentoo penguin (Pygoscelis papua)")

# A tibble: 124 × 17
   studyName `Sample Number` Species         Region Island Stage `Individual ID`
   <chr>               <dbl> <chr>           <chr>  <chr>  <chr> <chr>          
 1 PAL0708                 1 Gentoo penguin… Anvers Biscoe Adul… N31A1          
 2 PAL0708                 2 Gentoo penguin… Anvers Biscoe Adul… N31A2          
 3 PAL0708                 3 Gentoo penguin… Anvers Biscoe Adul… N32A1          
 4 PAL0708                 4 Gentoo penguin… Anvers Biscoe Adul… N32A2          
 5 PAL0708                 5 Gentoo penguin… Anvers Biscoe Adul… N33A1          
 6 PAL0708                 6 Gentoo penguin… Anvers Biscoe Adul… N33A2          
 7 PAL0708                 7 Gentoo penguin… Anvers Biscoe Adul… N34A1          
 8 PAL0708                 8 Gentoo penguin… Anvers Biscoe Adul… N34A2          
 9 PAL0708                 9 Gentoo penguin… Anvers Biscoe Adul… N35A1          
10 PAL0708                10 Gentoo penguin… Anvers Biscoe Adul… N35A2          
# ℹ 114 more rows
# ℹ 10 more variables: `Clutch Completion` <chr>, `Date Egg` <date>,
#   `Culmen Length (mm)` <dbl>, `Culmen Depth (mm)` <dbl>,
#   `Flipper Length (mm)` <dbl>, `Body Mass (g)` <dbl>, Sex <chr>,
#   `Delta 15 N (o/oo)` <dbl>, `Delta 13 C (o/oo)` <dbl>, Comments <chr>
…
%in%
“is contained in”

&
“and” (intersection)

|
“or” (union)

Let’s see a couple of other examples.

penguins_raw |> 
  filter(Island %in% c("Torgersen", "Biscoe"))

# A tibble: 220 × 17
   studyName `Sample Number` Species         Region Island Stage `Individual ID`
   <chr>               <dbl> <chr>           <chr>  <chr>  <chr> <chr>          
 1 PAL0708                 1 Adelie Penguin… Anvers Torge… Adul… N1A1           
 2 PAL0708                 2 Adelie Penguin… Anvers Torge… Adul… N1A2           
 3 PAL0708                 3 Adelie Penguin… Anvers Torge… Adul… N2A1           
 4 PAL0708                 4 Adelie Penguin… Anvers Torge… Adul… N2A2           
 5 PAL0708                 5 Adelie Penguin… Anvers Torge… Adul… N3A1           
 6 PAL0708                 6 Adelie Penguin… Anvers Torge… Adul… N3A2           
 7 PAL0708                 7 Adelie Penguin… Anvers Torge… Adul… N4A1           
 8 PAL0708                 8 Adelie Penguin… Anvers Torge… Adul… N4A2           
 9 PAL0708                 9 Adelie Penguin… Anvers Torge… Adul… N5A1           
10 PAL0708                10 Adelie Penguin… Anvers Torge… Adul… N5A2           
# ℹ 210 more rows
# ℹ 10 more variables: `Clutch Completion` <chr>, `Date Egg` <date>,
#   `Culmen Length (mm)` <dbl>, `Culmen Depth (mm)` <dbl>,
#   `Flipper Length (mm)` <dbl>, `Body Mass (g)` <dbl>, Sex <chr>,
#   `Delta 15 N (o/oo)` <dbl>, `Delta 13 C (o/oo)` <dbl>, Comments <chr>
…
