Introduction to R and RStudio – Computing Basics and Intro to R
…
What if we want to run this command from our code file?

In order to run code that you’ve typed in the editor, you have a few options. We can click Run again from the right side of the Editor tab but the quickest way to run the code is by pressing Ctrl+Enter on your keyboard (Cmd+Return on Mac).

This will run the line of code that currently contains your cursor and will move your cursor to the next line. Note that when Rstudio runs your code, it basically just copies your code from the Editor window to the Console window, just like what happened when we selected Run Selected Line(s).

Let’s take a closer look at the parts of this command.

Starting from the left, the first thing we see is chinstrap_data. We viewed the contents of this file after it was imported so we know that chinstrap_data acts as a placeholder for our data.

If we highlight just chinstrap_data within our code file and press Ctrl+Enter on our keyboard, what do we see?

We should see a data table outputted, similar to what we saw in the Viewer tab.

# A tibble: 68 × 17
   studyName `Sample Number` Species         Region Island Stage `Individual ID`
   <chr>               <dbl> <chr>           <chr>  <chr>  <chr> <chr>          
 1 PAL0708                 1 Chinstrap peng… Anvers Dream  Adul… N61A1          
 2 PAL0708                 2 Chinstrap peng… Anvers Dream  Adul… N61A2          
 3 PAL0708                 3 Chinstrap peng… Anvers Dream  Adul… N62A1          
 4 PAL0708                 4 Chinstrap peng… Anvers Dream  Adul… N62A2          
 5 PAL0708                 5 Chinstrap peng… Anvers Dream  Adul… N64A1          
 6 PAL0708                 6 Chinstrap peng… Anvers Dream  Adul… N64A2          
 7 PAL0708                 7 Chinstrap peng… Anvers Dream  Adul… N66A1          
 8 PAL0708                 8 Chinstrap peng… Anvers Dream  Adul… N66A2          
 9 PAL0708                 9 Chinstrap peng… Anvers Dream  Adul… N67A1          
10 PAL0708                10 Chinstrap peng… Anvers Dream  Adul… N67A2          
# ℹ 58 more rows
# ℹ 10 more variables: `Clutch Completion` <chr>, `Date Egg` <date>,
#   `Culmen Length (mm)` <dbl>, `Culmen Depth (mm)` <dbl>,
#   `Flipper Length (mm)` <dbl>, `Body Mass (g)` <dbl>, Sex <chr>,
#   `Delta 15 N (o/oo)` <dbl>, `Delta 13 C (o/oo)` <dbl>, Comments <chr>
…
